<?xml version="1.0" encoding="UTF-8" standalone="no"?>
<svg xmlns:dc="http://purl.org/dc/elements/1.1/" xmlns:cc="http://creativecommons.org/ns#" xmlns:rdf="http://www.w3.org/1999/02/22-rdf-syntax-ns#" xmlns:svg="http://www.w3.org/2000/svg" xmlns="http://www.w3.org/2000/svg" width="16" version="1.1" id="svg7384" height="16">
  <metadata id="metadata90">
    <rdf:RDF>
      <cc:Work rdf:about="">
        <dc:format>image/svg+xml</dc:format>
        <dc:type rdf:resource="http://purl.org/dc/dcmitype/StillImage"/>
        <dc:title>Gnome Symbolic Icon Theme</dc:title>
      </cc:Work>
    </rdf:RDF>
  </metadata>
  <title id="title9167">Gnome Symbolic Icon Theme</title>
  <defs id="defs7386"/>
  <path id="path967" d="M 8.0000002,1.0000005 C 4.1458503,1.0000005 1,4.1458511 1,8 1,11.854149 4.1458503,15 8.0000002,15 11.85415,15.000001 15,11.854149 15,8 15,4.1458511 11.85415,1.0000005 8.0000002,1.0000005 Z m 0,2 C 10.77327,3.0000005 13,5.2267321 13,8 c 0,2.773268 -2.22673,5 -4.9999998,5 V 8 Z" style="display:inline;opacity:1;vector-effect:none;fill:#241f31;fill-opacity:1;stroke:none;stroke-width:6;stroke-linecap:round;stroke-linejoin:round;stroke-miterlimit:4;stroke-dasharray:none;stroke-dashoffset:0;stroke-opacity:1;enable-background:new"/>
</svg>